OBJECTID,Community_Area,Community_Area_Name,Cases_2000_Male_15_44,Incidence_Rate_2000,Cases_2001_Male_15_44,Incidence_Rate_2001,Cases_2002_Male_15_44,Incidence_Rate_2002,Cases_2003_Male_15_44,Incidence_Rate_2003,Cases_2004_Male_15_44,Incidence_Rate_2004,Cases_2005_Male_15_44,Incidence_Rate_2005,Cases_2006_Male_15_44,Incidence_Rate_2006,Cases_2007_Male_15_44,Incidence_Rate_2007,Cases_2008_Male_15_44,Incidence_Rate_2008,Cases_2009_Male_15_44,Incidence_Rate_2009,Cases_2010_Male_15_44,Incidence_Rate_2010,Cases_2011_Male_15_44,Incidence_Rate_2011,Cases_2012_Male_15_44,Incidence_Rate_2012,Cases_2013_Male_15_44,Incidence_Rate_2013,Cases_2014_Male_15_44,Incidence_Rate_2014
1,1,Rogers Park,115,605.6,112,602.1,125,686.2,83,465.6,64,367,63,369.4,58,348,62,380.8,74,465.6,63,406.3,57,377,64,423.3,102,674.6,100,661.4,112,740.7
2,2,West Ridge,23,139.7,29,177.1,27,165.8,22,135.8,14,86.9,20,124.9,23,144.5,26,164.2,16,101.7,11,70.3,20,128.6,32,205.7,37,237.8,30,192.8,33,212.1
3,3,Uptown,165,856.3,152,800.6,119,636.3,97,526.7,107,590.1,76,425.8,90,512.4,82,474.5,52,305.9,45,269.2,62,377.4,77,468.7,137,833.8,150,913,235,1430.3
4,4,Lincoln Square,17,141.3,18,151.2,11,93.4,6,51.5,11,95.5,16,140.5,13,115.5,15,134.8,17,154.6,9,82.8,16,149,21,195.5,15,139.7,17,158.3,15,139.7
5,5,North Center,14,144.2,12,124.5,16,167.2,19,200,13,137.8,11,117.5,11,118.4,0,,7,76.5,8,88.1,7,77.7,17,188.6,18,199.7,16,177.5,17,188.6
6,6,Lake View,127,367.1,88,255.9,85,248.8,122,359.3,106,314.2,116,346.1,118,354.3,113,341.5,88,267.7,88,269.5,99,305.2,116,357.6,182,561.1,187,576.5,262,807.8
7,7,Lincoln Park,24,112,22,103.7,30,142.8,24,115.4,26,126.3,16,78.5,10,49.6,14,70.1,22,111.4,22,112.6,21,108.6,18,93.1,26,134.5,22,113.8,45,232.7
8,8,Near North Side,101,541.8,78,412.7,82,428.1,84,432.7,67,340.6,60,301.1,46,227.9,38,185.9,44,212.6,20,95.5,28,132,50,235.8,52,245.2,53,249.9,49,231.1
9,9,Edison Park,0,,0,,0,,0,,0,,0,,0,,0,,0,,0,,0,,0,,0,,0,,0,
10,10,Norwood Park,0,,5,72.5,0,,0,,0,,0,,0,,0,,0,,0,,0,,0,,0,,0,,0,
11,11,Jefferson Park,0,,0,,5,91,0,,0,,0,,5,93.9,0,,0,,0,,0,,0,,0,,0,,0,
12,12,Forest Glen,0,,0,,0,,0,,0,,0,,0,,0,,0,,0,,0,,0,,0,,0,,0,
13,13,North Park,0,,0,,0,,6,153.9,0,,0,,0,,5,133.3,0,,0,,0,,0,,0,,9,247,0,
14,14,Albany Park,15,91.9,17,105.8,19,120.2,10,64.3,8,52.3,10,66.5,10,67.7,17,117.1,14,98.1,15,107.1,12,87.3,14,101.8,17,123.6,21,152.7,19,138.2
15,15,Portage Park,8,52.5,10,66.2,13,86.6,11,73.8,6,40.6,6,40.9,6,41.2,9,62.2,9,62.7,0,,14,99.1,12,84.9,16,113.2,20,141.5,26,184
16,16,Irving Park,11,72.6,19,126.9,16,108.1,10,68.4,12,83,12,84,16,113.4,15,107.6,11,79.9,10,73.6,21,156.5,10,74.5,21,156.5,35,260.8,31,231
17,17,Dunning,0,,0,,0,,0,,0,,0,,0,,0,,0,,0,,0,,6,70.1,0,,0,,9,105.2
18,18,Montclaire,0,,0,,0,,5,170.9,0,,0,,0,,0,,0,,0,,0,,0,,0,,0,,0,
19,19,Belmont Cragin,9,45.9,25,127.9,33,169.2,23,118.2,20,103,23,118.7,18,93.1,12,62.2,19,98.7,16,83.3,17,88.7,27,140.9,29,151.3,25,130.4,24,125.2
20,20,Hermosa,11,160.5,6,88.5,10,149.1,13,195.9,15,228.6,11,169.5,5,77.9,8,126.1,8,127.6,0,,5,81.6,7,114.3,12,196,5,81.6,9,147
21,21,Avondale,6,51.5,9,77.8,15,130.6,6,52.6,7,61.8,10,88.9,15,134.3,9,81.2,6,54.5,11,100.7,13,119.9,10,92.2,21,193.6,19,175.2,36,331.9
22,22,Logan Square,37,155.2,43,181.8,48,204.5,38,163.2,39,168.9,41,179,43,189.3,36,159.8,27,120.8,26,117.3,32,145.6,35,159.3,48,218.5,45,204.8,54,245.8
23,23,Humboldt park,244,1628.1,186,1261.3,218,1502.7,171,1198.6,143,1019.5,139,1008.2,116,856.3,145,1089.7,107,818.9,93,725.1,88,699.2,118,937.5,122,969.3,106,842.2,80,635.6
24,24,West Town,76,276.2,78,283.6,92,334.7,63,229.4,68,247.7,51,185.9,43,156.8,59,215.3,45,164.3,34,124.2,45,164.5,50,182.8,73,266.9,64,234,64,234
25,25,Austin,660,2854.4,602,2652.9,605,2717.6,442,2024.6,379,1770.9,405,1931.1,378,1840.1,369,1834.7,340,1727.5,260,1350.5,239,1269.8,316,1678.9,358,1902,348,1848.9,225,1195.4
26,26,West Garfield Park,146,3310.7,128,2960.2,128,3020.3,93,2239.3,93,2286.7,107,2687.8,88,2259.3,73,1916.5,90,2416.8,46,1264.4,60,1689.2,83,2336.7,95,2674.5,94,2646.4,57,1604.7
27,27,East Garfield Park,131,3134.7,146,3485.3,137,3262.7,126,2994.3,84,1991.5,96,2270.6,101,2383.2,72,1694.9,99,2325.6,75,1757.7,68,1589.9,74,1730.2,95,2221.2,89,2080.9,64,1496.4
28,28,Near West Side,159,1202.3,128,935.5,138,976.1,118,808.5,79,524.8,89,573.9,66,413.4,70,426.3,103,610.2,63,363.4,59,331.6,83,466.5,162,910.5,89,500.2,92,517.1
29,29,North Lawndale,243,3262.2,249,3358.1,224,3034.8,179,2436.4,147,2010.1,156,2142.9,151,2083.9,127,1761,158,2201.2,113,1581.7,107,1504.9,159,2236.3,185,2602,129,1814.3,93,1308
30,30,South Lawndale,60,185.1,51,160.9,40,129.1,30,99.1,27,91.3,20,69.3,25,88.9,24,87.5,26,97.3,25,96.2,19,75.1,27,106.8,32,126.6,21,83,38,150.3
31,31,Lower West Side,14,109.5,17,135.7,20,163.1,26,216.6,11,93.7,16,139.4,14,124.8,7,63.9,11,102.9,14,134.2,11,108.2,8,78.7,18,177,18,177,32,314.7
32,32,Loop,16,312.4,22,392.4,20,328.4,13,197.7,11,155.8,23,304.8,20,249,15,176.1,13,144.4,6,63.2,12,120.3,20,200.5,17,170.5,29,290.8,34,340.9
33,33,Near South Side,42,1935.5,36,1412.3,35,1195.4,29,876.9,22,596.9,19,467.3,14,315,13,269.5,16,307.5,11,197.1,7,117.4,19,318.7,13,218.1,19,318.7,14,234.9
34,34,Armour Square,10,408.2,20,806.5,20,796.8,16,629.7,12,466.7,5,192.2,7,266.1,5,187.9,0,,0,,7,254.4,6,218,11,399.7,12,436,7,254.4
35,35,Douglas,127,2194.6,144,2549.6,85,1542.9,60,1117.1,58,1108.6,48,942.5,43,868,44,913.8,37,791.1,22,484.8,12,272.8,32,727.4,39,886.6,29,659.2,24,545.6
36,36,Oakland,50,4873.3,47,4598.8,25,2458.2,16,1579.5,14,1388.9,17,1693.2,16,1600,22,2211.1,15,1513.6,7,709.9,11,1120.2,16,1629.3,17,1731.2,12,1222,13,1323.8
37,37,Fuller Park,15,2427.2,18,2960.5,33,5527.6,15,2555.4,15,2604.2,8,1413.4,10,1798.6,12,2201.8,15,2803.7,7,1335.9,0,,8,1556.4,8,1556.4,6,1167.3,0,
38,38,Grand Boulevard,208,4608.9,168,3766,116,2631.6,106,2433.4,70,1626.8,48,1129.1,63,1500.7,78,1881.3,69,1685.8,58,1435.3,44,1103.3,67,1680,83,2081.2,78,1955.9,58,1454.4
39,39,Kenwood,59,1567.9,39,1049.8,53,1445.7,49,1354.3,48,1344.9,32,908.8,40,1152.1,39,1139,49,1451.9,16,480.9,17,518.6,18,549.1,37,1128.7,23,701.6,34,1037.2
40,40,Washington Park,114,4582,105,4280.5,107,4425.1,60,2517.8,53,2257.2,48,2075.2,64,2809.5,45,2006.2,44,1992.8,46,2116.9,40,1870.9,44,2058,54,2525.7,52,2432.2,31,1450
41,41,Hyde Park,37,420.6,34,394,33,389.9,39,470.1,36,442.9,22,276.3,27,346.3,17,222.8,21,281.4,14,191.9,12,168.4,12,168.4,22,308.6,31,434.9,18,252.5
42,42,Woodlawn,154,3083.1,132,2653.8,163,3290.9,144,2919.7,76,1547.5,87,1779.1,93,1910.4,93,1918.7,88,1823.5,46,957.3,47,982.4,87,1818.6,76,1588.6,68,1421.4,44,919.7
43,43,South Shore,268,2307,269,2366.1,216,1942.3,253,2326.9,189,1778.8,154,1484.1,200,1974.5,168,1700.2,187,1941.2,113,1204,84,919.3,124,1357.1,135,1477.5,132,1444.7,128,1400.9
44,44,Chatham,156,2432.6,133,2116.5,114,1852.5,128,2124.5,102,1730.3,105,1821,104,1845,105,1906.7,103,1915.2,61,1162.3,48,937.7,95,1855.8,97,1894.9,92,1797.2,73,1426.1
45,45,Avalon Park,47,2333.7,44,2230.1,33,1708.1,29,1534.4,29,1568.4,22,1216.8,22,1245,31,1796.1,35,2078.4,25,1521.6,10,624.2,33,2059.9,33,2059.9,28,1747.8,21,1310.9
46,46,South Chicago,128,1693.6,116,1571,110,1525.7,114,1620,104,1515.4,99,1480,94,1442.8,83,1308.9,61,989,44,734.1,42,721.6,52,893.5,63,1082.5,61,1048.1,43,738.8
47,47,Burnside,22,3358.8,22,3437.5,30,4792.3,17,2782.3,21,3523.5,14,2405.5,10,1763.7,11,1992.8,13,2420.9,7,1338.4,7,1378,8,1574.8,12,2362.2,8,1574.8,5,984.3
48,48,Calumet Heights,68,2485.4,48,1791.7,42,1601.2,42,1636.8,41,1634.1,34,1386.1,38,1586,25,1068.8,35,1533.7,14,628.9,21,968.2,24,1106.5,30,1383.1,14,645.5,24,1106.5
49,49,Roseland,300,3058.1,307,3199.9,269,2868.4,220,2401.2,212,2369.8,162,1855.5,190,2231.4,214,2578.6,164,2028.9,86,1093.2,116,1516.1,132,1725.3,160,2091.2,120,1568.4,103,1346.2
50,50,Pullman,25,1481.9,29,1754.4,23,1419.8,24,1513.2,28,1803,26,1711.7,19,1279.5,21,1446.3,27,1904.1,14,1010.8,11,814.2,20,1480.4,19,1406.4,15,1110.3,10,740.2
51,51,South Deering,59,1760.7,57,1732,37,1145.2,41,1293,21,675,23,753.9,35,1170.6,45,1535.8,20,696.9,20,711.7,24,872.7,28,1018.2,28,1018.2,23,836.4,19,690.9
52,52,East Side,0,,7,130.4,0,,0,,0,,0,,8,153.8,0,,0,,0,,0,,5,98.6,6,118.3,5,98.6,8,157.8
53,53,West Pullman,213,3042.9,204,2980.7,183,2736.2,156,2388.6,147,2305.9,149,2395.9,150,2474,162,2742.5,159,2765.2,63,1126.2,72,1324,91,1673.4,84,1544.7,62,1140.1,60,1103.3
54,54,Riverdale,50,3030.3,22,1381.9,47,3061.9,43,2911.3,48,3382.7,24,1762.1,25,1917.2,19,1524.9,14,1178.5,5,442.1,11,1025.2,15,1397.9,13,1211.6,20,1863.9,8,745.6
55,55,Hegewisch,0,,0,,0,,0,,0,,0,,0,,0,,0,,0,,0,,0,,0,,5,270.7,0,
56,56,Garfield Ridge,14,194.7,18,251.4,17,238.5,21,295.9,12,169.9,13,184.8,13,185.7,16,229.5,14,201.8,8,115.8,9,130.9,7,101.8,11,160,9,130.9,7,101.8
57,57,Archer Heights,0,,0,,0,,0,,0,,0,,0,,0,,0,,0,,0,,0,,0,,0,,5,152
58,58,Brighton Park,9,75.3,11,92.5,16,135.2,7,59.4,9,76.8,11,94.3,5,43.1,7,60.6,0,,8,70,5,43.9,6,52.7,13,114.3,9,79.1,12,105.5
59,59,McKinley Park,0,,0,,6,153.6,5,129,0,,0,,0,,0,,0,,0,,0,,0,,0,,0,,0,
60,60,Bridgeport,0,,9,108.9,14,170.7,7,86,0,,0,,0,,9,114.1,8,102.2,0,,0,,5,65,7,90.9,9,116.9,7,90.9
61,61,New City,157,1220.7,171,1356.1,163,1318.9,108,892,102,860.3,79,680.7,104,916,69,621.5,76,700.3,63,594.3,64,618.4,60,579.7,71,686,67,647.3,34,328.5
62,62,West Elsdon,0,,0,,5,131.9,0,,0,,0,,0,,0,,0,,0,,0,,5,115.9,0,,5,115.9,0,
63,63,Gage Park,22,215.9,30,294.8,21,206.6,17,167.5,13,128.3,24,237.1,20,197.8,19,188.2,21,208.3,5,49.7,9,89.5,15,149.2,19,188.9,18,179,15,149.2
64,64,Clearing,0,,0,,0,,5,100.3,0,,0,,0,,0,,0,,6,121.1,0,,0,,0,,0,,5,101
65,65,West Lawn,5,75.9,7,104,12,174.5,5,71.2,0,,8,109.5,6,80.5,9,118.5,12,155,7,88.8,9,112.1,7,87.2,10,124.5,9,112.1,9,112.1
66,66,Chicago Lawn,186,1324.4,219,1577.7,180,1312.1,173,1276.3,117,873.7,165,1247.2,172,1316.3,177,1371.7,143,1122.4,96,763.2,105,845.8,144,1159.9,145,1167.9,114,918.2,84,676.6
67,67,West Englewood,348,3964.5,313,3646.3,349,4160.2,276,3367.9,193,2412.2,200,2561.8,218,2863.9,191,2574.8,204,2823.9,106,1508,122,1784.9,174,2545.7,179,2618.9,141,2062.9,102,1492.3
68,68,Englewood,360,4934.2,339,4759.9,267,3843.4,266,3927.4,187,2834.2,193,3004.4,181,2896,191,3144,179,3033.4,101,1763.9,118,2125.4,129,2323.5,155,2791.8,113,2035.3,77,1386.9
69,69,Greater Grand Crossing,205,3058.3,179,2717.1,189,2919.8,155,2437.5,129,2066,138,2251.6,152,2527.4,136,2305.5,144,2489.2,96,1693.1,84,1512.2,113,2034.2,130,2340.2,101,1818.2,95,1710.2
70,70,Ashburn,43,517.1,58,697.6,48,577.5,59,710.1,51,613.9,38,457.6,56,674.5,64,771.1,44,530.2,36,434,31,373.8,50,602.9,37,446.2,47,566.7,42,506.5
71,71,Auburn Gresham,329,3254.8,289,2912.4,335,3440.5,223,2334.6,197,2103.1,205,2232.6,197,2189.9,210,2383.4,183,2121.5,94,1113.7,131,1586.9,164,1986.7,141,1708.1,130,1574.8,112,1356.8
72,72,Beverly,34,820.9,28,688.1,21,525.7,20,509.9,15,389.8,11,291.4,17,459.2,8,220.5,12,337.6,13,373.5,10,293.4,16,469.5,35,1027,9,264.1,10,293.4
73,73,Washington Heights,157,2955,117,2241,128,2495.6,118,2342.2,90,1819.7,87,1792.3,94,1974,107,2291.2,86,1878.1,43,958.3,46,1046.6,56,1274.2,77,1752,67,1524.5,54,1228.7
74,74,Mount Greenwood,0,,0,,0,,0,,0,,0,,0,,0,,0,,0,,0,,0,,0,,0,,0,
75,75,Morgan Park,74,1528.9,58,1221.8,63,1353.4,63,1381,45,1006.9,44,1005.3,51,1190.5,48,1145.3,56,1366.5,22,549.2,24,613.3,29,741.1,32,817.8,40,1022.2,27,690
76,76,O'Hare,0,,0,,0,,0,,5,159.7,0,,0,,0,,0,,0,,0,,0,,0,,0,,0,
77,77,Edgewater,101,559.3,72,404.1,79,449.4,78,449.8,68,397.6,68,403.2,80,481.2,63,384.5,59,365.4,52,326.8,58,370.1,67,427.5,102,650.9,105,670,160,1021
